treatment_id;hospital_stay_id;treatment;posology;unit;treatment_date
1;1;T1;2;mg;20200103
2;1;T2;1;mg;20200103
3;2;T1;2;mg;20200224
4;3;T2;2;mg;20210201
5;3;T1;1;mg;20210201
6;4;T1;1;mg;20210810
7;5;T1;1;mg;20210812
8;6;T3;1;mg;20210821
9;6;T3;1;mg;20210822
10;6;T3;1;mg;20210823
11;6;T3;1;mg;20210824
12;6;T2;5;mg;20210824
13;7;T3;5;mg;20210828
14;8;T1;1;mg;20210104
15;8;T1;1;mg;20210105
16;8;T1;1;mg;20210106
17;9;T2;1;mg;20210102
18;9;T2;1;mg;20210103
19;9;T2;1;mg;20210104
20;9;T2;1;mg;20210105
21;9;T4;10;mg;20210105
22;9;T2;1;mg;20210106
23;9;T4;10;mg;20210106
24;10;T1;1;mg;20210201
25;10;T1;1;mg;20210202
26;10;T1;1;mg;20210203
27;10;T1;1;mg;20210204
28;10;T1;1;mg;20210205
29;11;T1;1;mg;20210102
30;12;T2;1;mg;20210102
31;12;T2;1;mg;20210103
32;12;T2;1;mg;20210104
33;13;T3;1;mg;20210104
34;13;T2;1;mg;20210105
35;13;T2;1;mg;20210106
36;14;T1;1;mg;20210104
37;14;T1;1;mg;20210105
38;14;T1;1;mg;20210106
39;14;T1;1;mg;20210107
40;14;T1;1;mg;20210108
41;14;T1;1;mg;20210109
42;14;T1;1;mg;20210110
43;16;T1;1;mg;20210104
44;16;T1;1;mg;20210105
45;16;T1;1;mg;20210106
46;16;T1;1;mg;20210107
47;16;T1;1;mg;20210108
48;16;T1;1;mg;20210109
49;16;T3;1;mg;20210109
50;17;T3;1;mg;20210104
51;17;T1;1;mg;20210104
52;17;T3;1;mg;20210105
53;17;T3;1;mg;20210106
54;17;T3;1;mg;20210107
55;17;T3;1;mg;20210108
56;18;T1;2;mg;20210104
57;19;T1;1;mg;20210104
58;20;T3;1;mg;20210105
59;20;T3;1;mg;20210106
60;20;T3;1;mg;20210107
61;21;T3;1;mg;20210105
62;21;T1;1;mg;20210105
63;22;T1;1;mg;20210105
64;22;T1;1;mg;20210106
65;22;T1;1;mg;20210107
66;22;T2;2;mg;20210107
67;23;T1;1;mg;20210105
68;23;T2;2;mg;20210105
69;23;T7;20;mg;20210105
70;23;T1;1;mg;20210106
71;23;T1;1;mg;20210107
72;23;T1;1;mg;20210108
73;23;T1;1;mg;20210109
74;24;T1;1;mg;20210105
75;24;T1;1;mg;20210106
76;24;T1;1;mg;20210107
77;25;T1;1;mg;20210105
78;25;T1;1;mg;20210106
79;25;T1;1;mg;20210107
80;25;T1;1;mg;20210108
81;25;T1;1;mg;20210109
82;26;T1;1;mg;20210110
83;26;T2;1;mg;20210110
84;27;T1;1;mg;20210110
85;27;T2;1;mg;20210110
86;27;T1;1;mg;20210111
87;28;T1;1;mg;20210110
88;28;T2;1;mg;20210110
89;28;T3;1;mg;20210110
90;29;T3;1;mg;20210110
91;29;T1;1;mg;20210110
92;29;T3;1;mg;20210112
93;29;T3;1;mg;20210113
94;29;T3;1;mg;20210114
95;29;T3;1;mg;20210115
96;29;T3;1;mg;20210116
97;29;T3;1;mg;20210117
98;29;T3;1;mg;20210118
99;29;T3;1;mg;20210119
100;29;T3;1;mg;20210120
101;30;T1;1;mg;20210114
102;30;T1;1;mg;20210115
103;30;T1;1;mg;20210116
104;30;T3;1;mg;20210116
105;31;T1;1;mg;20210104
106;31;T1;1;mg;20210105
107;31;T1;1;mg;20210106
108;32;T3;1;mg;20210105
109;32;T3;1;mg;20210106
110;32;T3;1;mg;20210107
111;33;T2;1;mg;20210105
112;33;T2;1;mg;20210106
113;33;T2;1;mg;20210107
114;33;T2;1;mg;20210108
115;33;T2;1;mg;20210109
116;33;T2;1;mg;20210110
117;35;T2;1;mg;20210105
118;35;T2;1;mg;20210106
119;36;T3;1;mg;20210105
120;36;T3;1;mg;20210106
121;36;T3;1;mg;20210107
122;36;T3;1;mg;20210108
123;36;T3;1;mg;20210109
124;36;T3;1;mg;20210110
125;38;T2;1;mg;20210204
126;38;T2;1;mg;20210205
127;38;T2;1;mg;20210206
128;39;T2;1;mg;20210106
129;39;T2;1;mg;20210107
130;39;T2;1;mg;20210108
131;39;T2;1;mg;20210109
132;40;T3;1;mg;20210106
133;40;T3;1;mg;20210107
134;40;T3;1;mg;20210108
135;40;T3;1;mg;20210109
136;41;T1;1;mg;20210107
137;42;T1;1;mg;20210107
138;43;T3;1;mg;20210107
139;43;T3;1;mg;20210108
140;43;T3;1;mg;20210109
141;43;T3;1;mg;20210110
142;44;T3;1;mg;20210305
143;44;T3;1;mg;20210306
144;44;T3;1;mg;20210307
145;44;T3;1;mg;20210308
146;44;T3;1;mg;20210309
147;44;T3;1;mg;20210310
148;44;T3;1;mg;20210310
149;45;T3;1;mg;20210107
150;46;T3;1;mg;20210107
151;47;T1;1;mg;20210107
152;48;T3;1;mg;20210108
153;49;T3;1;mg;20210108
154;49;T3;1;mg;20210109
155;50;T1;1;mg;20210310
156;50;T1;1;mg;20210311
157;50;T1;1;mg;20210312
158;51;T1;1;mg;20210108
159;51;T1;1;mg;20210109
160;51;T1;1;mg;20210110
161;52;T1;1;mg;20210108
162;53;T1;1;mg;20210108
163;53;T1;1;mg;20210109
164;54;T1;1;mg;20210109
165;54;T1;1;mg;20210110
166;54;T1;1;mg;20210111
167;54;T1;1;mg;20210112
168;54;T1;1;mg;20210113
169;54;T1;1;mg;20210114
170;54;T1;1;mg;20210115
171;55;T1;1;mg;20210109
172;55;T1;1;mg;20210110
173;55;T1;1;mg;20210111
174;55;T1;1;mg;20210112
175;56;T1;1;mg;20210109
176;56;T1;1;mg;20210110
177;56;T1;1;mg;20210111
178;56;T1;1;mg;20210112
179;56;T1;1;mg;20210113
180;57;T1;1;mg;20210110
181;57;T1;1;mg;20210111
182;57;T1;1;mg;20210112
183;58;T1;1;mg;20210220
184;58;T1;1;mg;20210221
185;58;T1;1;mg;20210222
186;58;T1;1;mg;20210223
187;58;T1;1;mg;20210224
188;59;T1;1;mg;20210110
189;59;T1;1;mg;20210111
190;59;T1;1;mg;20210112
191;60;T1;1;mg;20210110
192;60;T1;1;mg;20210111
193;60;T1;1;mg;20210112
194;60;T1;1;mg;20210113
195;60;T1;1;mg;20210114
196;60;T1;1;mg;20210115
197;60;T1;1;mg;20210116
198;60;T1;1;mg;20210117
199;60;T1;1;mg;20210118
200;60;T2;1;mg;20210118
